Иванов Иван Иванович; 1989; Адрес1; 10;
Петров Иван Иванович; 1987; Адрес2; 11;
Сидоров Иван Иванович; 1989; Адрес3; 123;
Пупкин Иван Иванович; 1990; Адрес4; 65;
Таратайкин Иван Иванович; 1984; Адрес5; 1;
